module hello

go 1.18

require (
	github.com/gobuffalo/buffalo v0.18.7
	github.com/gobuffalo/buffalo-pop/v3 v3.0.4
	github.com/gobuffalo/envy v1.10.1
	github.com/gobuffalo/mw-csrf v1.0.0
	github.com/gobuffalo/mw-forcessl v0.0.0-20220514125302-be60179938a4
	github.com/gobuffalo/mw-i18n/v2 v2.0.1
	github.com/gobuffalo/mw-paramlogger v1.0.0
	github.com/gobuffalo/pop/v6 v6.0.4
	github.com/gobuffalo/suite/v4 v4.0.2
	github.com/gobuffalo/validate/v3 v3.3.1
	github.com/gofrs/uuid v4.2.0+incompatible
	github.com/markbates/grift v1.5.0
	github.com/unrolled/secure v1.10.0
)

require (
	github.com/BurntSushi/toml v1.1.0 // indirect
	github.com/Masterminds/semver/v3 v3.1.1 // indirect
	github.com/aymerick/douceur v0.2.0 // indirect
	github.com/davecgh/go-spew v1.1.1 // indirect
	github.com/dustin/go-humanize v1.0.0 // indirect
	github.com/fatih/color v1.13.0 // indirect
	github.com/fatih/structs v1.1.0 // indirect
	github.com/felixge/httpsnoop v1.0.1 // indirect
	github.com/fsnotify/fsnotify v1.5.1 // indirect
	github.com/go-sql-driver/mysql v1.6.0 // indirect
	github.com/gobuffalo/events v1.4.2 // indirect
	github.com/gobuffalo/fizz v1.14.0 // indirect
	github.com/gobuffalo/flect v0.2.5 // indirect
	github.com/gobuffalo/github_flavored_markdown v1.1.1 // indirect
	github.com/gobuffalo/helpers v0.6.4 // indirect
	github.com/gobuffalo/httptest v1.5.1 // indirect
	github.com/gobuffalo/logger v1.0.6 // indirect
	github.com/gobuffalo/meta v0.3.1 // indirect
	github.com/gobuffalo/nulls v0.4.1 // indirect
	github.com/gobuffalo/plush/v4 v4.1.11 // indirect
	github.com/gobuffalo/tags/v3 v3.1.2 // indirect
	github.com/gorilla/css v1.0.0 // indirect
	github.com/gorilla/handlers v1.5.1 // indirect
	github.com/gorilla/mux v1.8.0 // indirect
	github.com/gorilla/securecookie v1.1.1 // indirect
	github.com/gorilla/sessions v1.2.1 // indirect
	github.com/inconshreveable/mousetrap v1.0.0 // indirect
	github.com/jackc/chunkreader/v2 v2.0.1 // indirect
	github.com/jackc/pgconn v1.12.1 // indirect
	github.com/jackc/pgio v1.0.0 // indirect
	github.com/jackc/pgpassfile v1.0.0 // indirect
	github.com/jackc/pgproto3/v2 v2.3.0 // indirect
	github.com/jackc/pgservicefile v0.0.0-20200714003250-2b9c44734f2b // indirect
	github.com/jackc/pgtype v1.11.0 // indirect
	github.com/jackc/pgx/v4 v4.16.1 // indirect
	github.com/jmoiron/sqlx v1.3.5 // indirect
	github.com/joho/godotenv v1.4.0 // indirect
	github.com/karrick/godirwalk v1.16.1 // indirect
	github.com/kballard/go-shellquote v0.0.0-20180428030007-95032a82bc51 // indirect
	github.com/luna-duclos/instrumentedsql v1.1.3 // indirect
	github.com/markbates/oncer v1.0.0 // indirect
	github.com/markbates/refresh v1.12.0 // indirect
	github.com/markbates/safe v1.0.1 // indirect
	github.com/mattn/go-colorable v0.1.12 // indirect
	github.com/mattn/go-isatty v0.0.14 // indirect
	github.com/mattn/go-sqlite3 v1.14.9 // indirect
	github.com/microcosm-cc/bluemonday v1.0.16 // indirect
	github.com/mitchellh/go-homedir v1.1.0 // indirect
	github.com/monoculum/formam v3.5.5+incompatible // indirect
	github.com/nicksnyder/go-i18n v1.10.1 // indirect
	github.com/pelletier/go-toml v1.9.3 // indirect
	github.com/pkg/errors v0.9.1 // indirect
	github.com/pmezard/go-difflib v1.0.0 // indirect
	github.com/rogpeppe/go-internal v1.8.0 // indirect
	github.com/sergi/go-diff v1.2.0 // indirect
	github.com/sirupsen/logrus v1.8.1 // indirect
	github.com/sourcegraph/annotate v0.0.0-20160123013949-f4cad6c6324d // indirect
	github.com/sourcegraph/syntaxhighlight v0.0.0-20170531221838-bd320f5d308e // indirect
	github.com/spf13/cobra v1.4.0 // indirect
	github.com/spf13/pflag v1.0.5 // indirect
	github.com/stretchr/testify v1.7.1 // indirect
	golang.org/x/crypto v0.0.0-20211117183948-ae814b36b871 // indirect
	golang.org/x/net v0.0.0-20211112202133-69e39bad7dc2 // indirect
	golang.org/x/sync v0.0.0-20210220032951-036812b2e83c // indirect
	golang.org/x/sys v0.0.0-20211205182925-97ca703d548d // indirect
	golang.org/x/term v0.0.0-20210927222741-03fcf44c2211 // indirect
	golang.org/x/text v0.3.7 // indirect
	gopkg.in/yaml.v2 v2.4.0 // indirect
	gopkg.in/yaml.v3 v3.0.0-20210107192922-496545a6307b // indirect
)
